{
  "layer": {
    "name": "polygon",
    "objectIdFieldName": "_id",
    "globalIdFieldName": "_id",
    "geometryType": "Polygon",
    "spatialReference": {
      "wkid": 102100,
      "latestWkid": 4326
    },
    "fields": [
      {
        "name": "_id",
        "alias": "_id",
        "type": "string",
        "length": 255,
        "editable": true,
        "nullable": true
      }
    ],
    "displayField": "_id"
  },
  "data": {
    "id": "polygon",
    "spatialReference": {
      "wkid": 102100,
      "latestWkid": 4326
    },
    "features": []
  }
}
